006 Q0 653941297934303232 1 4.146646 vsm
006 Q0 653941488242393088 2 3.8355355 vsm
006 Q0 653941413915328512 3 3.8355355 vsm
006 Q0 653941362644029440 4 3.8355355 vsm
006 Q0 653941326745088000 5 3.8355355 vsm
006 Q0 653941279403831296 6 3.8355355 vsm
006 Q0 652113480066187266 7 2.0179424 vsm
006 Q0 653941497365028864 8 1.8799661 vsm
006 Q0 653941451085225984 9 1.8799661 vsm
006 Q0 653941358739087362 10 1.8799661 vsm
006 Q0 648234273053519872 11 1.7656997 vsm
006 Q0 654279299277697025 12 1.6449704 vsm
006 Q0 653278472547237888 13 1.4509852 vsm
006 Q0 654279470648545280 14 1.1817908 vsm
006 Q0 653941471272308736 15 1.1198553 vsm
006 Q0 654279364683694080 16 1.0793418 vsm
006 Q0 648234153058566145 17 0.8949616 vsm
006 Q0 653278425482825728 18 0.8634734 vsm
006 Q0 653278355937214464 19 0.8634734 vsm
006 Q0 653941501395894272 20 0.8634734 vsm
006 Q0 653941289558278144 21 0.8634734 vsm
006 Q0 653941273494093825 22 0.8634734 vsm
006 Q0 653941265109684225 23 0.8634734 vsm
006 Q0 654279386330365953 24 0.8634734 vsm
006 Q0 654279351060594688 25 0.8634734 vsm
006 Q0 654279270647365632 26 0.8634734 vsm
006 Q0 654279205476110336 27 0.8634734 vsm
006 Q0 647458265744437248 28 0.8305766 vsm
006 Q0 653941400904536064 29 0.7555393 vsm
006 Q0 652488563750227968 30 0.71596926 vsm
006 Q0 652488243808727040 31 0.71596926 vsm
006 Q0 652488175915503617 32 0.71596926 vsm
006 Q0 650788746665820162 33 0.7116248 vsm
006 Q0 653941504956833792 34 0.7008772 vsm
006 Q0 654279376385765376 35 0.7008772 vsm
006 Q0 654279215596961792 36 0.7008772 vsm
006 Q0 653278435205337088 37 0.67530906 vsm
006 Q0 653278366649348096 38 0.67530906 vsm
006 Q0 653941402875723776 39 0.67530906 vsm
006 Q0 650755787501998080 40 0.67530906 vsm
006 Q0 650752813212020736 41 0.67530906 vsm
006 Q0 654279316130430976 42 0.62647307 vsm
006 Q0 651385352343691264 43 0.62647307 vsm
006 Q0 654279402507792384 44 0.5607017 vsm
006 Q0 654279321327038465 45 0.5607017 vsm
006 Q0 654279270882086912 46 0.5607017 vsm
006 Q0 647458115604975616 47 0.5607017 vsm
006 Q0 648234648062009344 48 0.52602994 vsm
006 Q0 653278376371855360 49 0.49061403 vsm
006 Q0 653941302753669120 50 0.49061403 vsm
006 Q0 647044635647430656 51 0.49061403 vsm
006 Q0 647458853865529345 52 0.40274322 vsm
006 Q0 647458720625131520 53 0.40274322 vsm
