map                   	002	0.4417
bpref                 	002	0.8059
ndcg                  	002	0.7416
set_F_0.5             	002	0.0571
map                   	all	0.0315
bpref                 	all	0.0576
ndcg                  	all	0.0530
set_F_0.5             	all	0.0041
