map                   	006	0.0135
bpref                 	006	0.4938
ndcg                  	006	0.1847
set_F_0.5             	006	0.0202
map                   	all	0.0010
bpref                 	all	0.0353
ndcg                  	all	0.0132
set_F_0.5             	all	0.0014
