map                   	008	0.0000
bpref                 	008	0.0000
ndcg                  	008	0.0000
set_F_0.5             	008	0.0000
map                   	all	0.0000
bpref                 	all	0.0000
ndcg                  	all	0.0000
set_F_0.5             	all	0.0000
