001 Q0 654279338091769856 1 11.030192 lm
001 Q0 654279317355016192 2 10.7316675 lm
001 Q0 653941500552810496 3 4.4249163 lm
001 Q0 653278474317221888 4 2.7553396 lm
001 Q0 654279406496686080 5 2.4303787 lm
001 Q0 647044576176377856 6 0.9928691 lm
001 Q0 648234591694815233 7 0.9928691 lm
001 Q0 650756430509830144 8 0.9900079 lm
001 Q0 651023739451260928 9 0.9900079 lm
001 Q0 652488526429331456 10 0.9362332 lm
001 Q0 653941417878929409 11 0.8363266 lm
001 Q0 653941534283440128 12 0.8332112 lm
001 Q0 653941493539848194 13 0.8332112 lm
001 Q0 653941528214306816 14 0.8274887 lm
001 Q0 653941526242979840 15 0.8274887 lm
001 Q0 653941498925350914 16 0.8274887 lm
001 Q0 653941474632011776 17 0.8274887 lm
001 Q0 653941438816854016 18 0.8274887 lm
001 Q0 653941391769210880 19 0.8274887 lm
001 Q0 653941354729369600 20 0.8274887 lm
001 Q0 653941338560438272 21 0.8274887 lm
001 Q0 653941282583257088 22 0.8274887 lm
001 Q0 654279437291245568 23 0.8274887 lm
001 Q0 654279273587572736 24 0.8274887 lm
001 Q0 647458737347764224 25 0.8274887 lm
001 Q0 647458557718306816 26 0.8274887 lm
001 Q0 647458142373019648 27 0.8274887 lm
001 Q0 654279231460012032 28 0.7344271 lm
001 Q0 653278371120459776 29 0.64256144 lm
001 Q0 650853962405560321 30 0.64256144 lm
001 Q0 651385182520524800 31 0.64256144 lm
001 Q0 652488380916330496 32 0.64256144 lm
001 Q0 651385166552805376 33 0.6401349 lm
001 Q0 652488842159747073 34 0.6401349 lm
001 Q0 653719715173437440 35 0.59641826 lm
001 Q0 653719387413676032 36 0.593557 lm
001 Q0 653718664223453184 37 0.593557 lm
001 Q0 653718667302035456 38 0.59113044 lm
001 Q0 647044545788575744 39 0.53263646 lm
001 Q0 652113811533615104 40 0.53036106 lm
001 Q0 652488593206743042 41 0.53036106 lm
001 Q0 652488442526339073 42 0.53036106 lm
001 Q0 650762345141112832 43 0.52691394 lm
001 Q0 650753099112562688 44 0.52691394 lm
001 Q0 650747494180233216 45 0.52691394 lm
001 Q0 650736526171750400 46 0.52691394 lm
001 Q0 650736366792376320 47 0.52691394 lm
001 Q0 650733889137340416 48 0.52691394 lm
001 Q0 650733756282707970 49 0.52691394 lm
001 Q0 650732766460530688 50 0.52691394 lm
001 Q0 650732068981317632 51 0.52691394 lm
001 Q0 650731691577896961 52 0.52691394 lm
001 Q0 650731366091505664 53 0.52691394 lm
001 Q0 650731104811397120 54 0.52691394 lm
001 Q0 650731101107818496 55 0.52691394 lm
001 Q0 650730411895705600 56 0.52691394 lm
001 Q0 650730175072702464 57 0.52691394 lm
001 Q0 650729804619194368 58 0.52691394 lm
001 Q0 650729693998673920 59 0.52691394 lm
001 Q0 650729602869014528 60 0.52691394 lm
001 Q0 650729193093750784 61 0.52691394 lm
001 Q0 650729039909490688 62 0.52691394 lm
001 Q0 648234777108180992 63 0.52691394 lm
001 Q0 648234632849178624 64 0.52691394 lm
001 Q0 648234459246948352 65 0.52691394 lm
001 Q0 648234431220707329 66 0.52691394 lm
001 Q0 648234274345328640 67 0.52691394 lm
001 Q0 648234253927346176 68 0.52691394 lm
001 Q0 648234164387364864 69 0.52691394 lm
001 Q0 648234162760122369 70 0.52691394 lm
001 Q0 648234088890036233 71 0.52691394 lm
001 Q0 648234068568440832 72 0.52691394 lm
001 Q0 648233900624453632 73 0.52691394 lm
001 Q0 652113546369609728 74 0.38665128 lm
001 Q0 653941511529238532 75 0.38379002 lm
001 Q0 652113833260122112 76 0.38379002 lm
001 Q0 648234340946571264 77 0.38379002 lm
001 Q0 653941457246650368 78 0.3526096 lm
001 Q0 648234287301443585 79 0.3526096 lm
001 Q0 653718188446715904 80 0.29852492 lm
001 Q0 653718163058618368 81 0.29852492 lm
001 Q0 654279461895057408 82 0.29852492 lm
001 Q0 650747628301479936 83 0.29852492 lm
001 Q0 651385304033587204 84 0.29852492 lm
001 Q0 647458200015511552 85 0.29852492 lm
001 Q0 653718657655148544 86 0.29609835 lm
001 Q0 653718657311227904 87 0.29609835 lm
001 Q0 654279218067599360 88 0.29609835 lm
001 Q0 652113759855472640 89 0.29609835 lm
001 Q0 652113661956333568 90 0.29609835 lm
001 Q0 652113588451155968 91 0.29609835 lm
001 Q0 652113517609373696 92 0.29609835 lm
001 Q0 652113303645356032 93 0.29609835 lm
001 Q0 653718949318782976 94 0.25419408 lm
001 Q0 653718833404862464 95 0.25419408 lm
001 Q0 651023805574475776 96 0.18848546 lm
