005 Q0 653941412636008449 1 11.478767 bm25
005 Q0 653941409829883904 2 11.478767 bm25
005 Q0 653941264690249728 3 11.478767 bm25
005 Q0 653278329521504256 4 10.193029 bm25
005 Q0 654279404542140416 5 10.193029 bm25
005 Q0 654279266780188672 6 10.193029 bm25
005 Q0 653278366427181056 7 8.450525 bm25
005 Q0 653278352816635904 8 8.450525 bm25
005 Q0 652488926389739520 9 4.610262 bm25
005 Q0 653718562696220674 10 4.05594 bm25
005 Q0 653941416859709440 11 4.05594 bm25
005 Q0 653941377319993344 12 4.05594 bm25
005 Q0 647044503728222208 13 4.05594 bm25
005 Q0 648234652134608896 14 4.05594 bm25
005 Q0 653718657655148544 15 3.821202 bm25
005 Q0 653718657311227904 16 3.821202 bm25
005 Q0 647044563132149760 17 3.821202 bm25
005 Q0 647044544765165568 18 3.821202 bm25
