005 Q0 653941412636008449 1 3.568439 vsm
005 Q0 653941409829883904 2 3.568439 vsm
005 Q0 653941264690249728 3 3.568439 vsm
005 Q0 653278329521504256 4 2.973699 vsm
005 Q0 654279404542140416 5 2.973699 vsm
005 Q0 654279266780188672 6 2.973699 vsm
005 Q0 653278366427181056 7 2.3789594 vsm
005 Q0 653278352816635904 8 2.3789594 vsm
005 Q0 652488926389739520 9 1.2618755 vsm
005 Q0 653718562696220674 10 1.1114161 vsm
005 Q0 653941416859709440 11 1.1114161 vsm
005 Q0 653941377319993344 12 1.1114161 vsm
005 Q0 647044503728222208 13 1.1114161 vsm
005 Q0 648234652134608896 14 1.1114161 vsm
005 Q0 653718657655148544 15 1.0095004 vsm
005 Q0 653718657311227904 16 1.0095004 vsm
005 Q0 647044563132149760 17 1.0095004 vsm
005 Q0 647044544765165568 18 1.0095004 vsm
