008 Q0 653278274651492353 1 8.203967 vsm
008 Q0 653275286272774144 2 8.203967 vsm
008 Q0 653274639985045504 3 8.203967 vsm
008 Q0 653277787395125248 4 6.836639 vsm
008 Q0 653275295907078144 5 6.8310614 vsm
008 Q0 653275274478391296 6 6.8310614 vsm
008 Q0 653275264785346560 7 6.8310614 vsm
008 Q0 653275256069578752 8 6.8310614 vsm
008 Q0 653275245340594176 9 6.8310614 vsm
008 Q0 653275235584622592 10 6.8310614 vsm
008 Q0 653275225694429184 11 6.8310614 vsm
008 Q0 653275213761613824 12 6.8310614 vsm
008 Q0 653275201174552576 13 6.8310614 vsm
008 Q0 653275191229874177 14 6.8310614 vsm
008 Q0 653275181129986048 15 6.8310614 vsm
008 Q0 653275173563469824 16 6.8310614 vsm
008 Q0 653275164126281730 17 6.8310614 vsm
008 Q0 653275157356634113 18 6.8310614 vsm
008 Q0 653275141313433601 19 6.8310614 vsm
008 Q0 653273260876890112 20 6.8310614 vsm
008 Q0 653278482517110785 21 5.4693108 vsm
008 Q0 653277903430516736 22 5.4693108 vsm
008 Q0 653275585066602496 23 5.4693108 vsm
008 Q0 653275516179378176 24 5.4693108 vsm
008 Q0 653275443609505793 25 5.4693108 vsm
008 Q0 653275369630396416 26 5.4693108 vsm
008 Q0 648208280842465280 27 1.6785011 vsm
008 Q0 648201753339363328 28 1.6785011 vsm
008 Q0 653274210136129536 29 1.1060631 vsm
008 Q0 651323525551247361 30 0.5021502 vsm
008 Q0 653276771916324864 31 0.44153112 vsm
008 Q0 653932792540233729 32 0.44153112 vsm
008 Q0 653930333256159235 33 0.44153112 vsm
008 Q0 654269200752578560 34 0.44153112 vsm
008 Q0 648209985701343232 35 0.44153112 vsm
008 Q0 647042587866501121 36 0.41845846 vsm
008 Q0 653275685692276736 37 0.35322493 vsm
008 Q0 653272246270754816 38 0.35322493 vsm
008 Q0 647042276913479680 39 0.35322493 vsm
008 Q0 654277881124790272 40 0.3347668 vsm
008 Q0 653274259742158848 41 0.15884742 vsm
008 Q0 653273688591200256 42 0.15884742 vsm
008 Q0 653658182443757568 43 0.1576854 vsm
008 Q0 653658035919945728 44 0.1576854 vsm
008 Q0 653651909518172160 45 0.1576854 vsm
008 Q0 648198150537089024 46 0.1576854 vsm
008 Q0 648806320838197248 47 0.1569882 vsm
008 Q0 653931380624244736 48 0.15347904 vsm
008 Q0 653929495477493761 49 0.15347904 vsm
008 Q0 653929338820280320 50 0.15347904 vsm
008 Q0 653276673253711872 51 0.13380049 vsm
008 Q0 654276994797031424 52 0.13380049 vsm
008 Q0 649334129272750080 53 0.13380049 vsm
008 Q0 652111127455924224 54 0.13380049 vsm
008 Q0 652447708645588992 55 0.13380049 vsm
008 Q0 647441880632946689 56 0.13380049 vsm
008 Q0 648204028560703488 57 0.13380049 vsm
008 Q0 648202162263171072 58 0.13380049 vsm
008 Q0 651330112428863488 59 0.12278323 vsm
008 Q0 651327946838396928 60 0.12278323 vsm
008 Q0 651327500476391424 61 0.12278323 vsm
008 Q0 653277342559805440 62 0.11150041 vsm
008 Q0 653276982617096192 63 0.11150041 vsm
008 Q0 653926905532555264 64 0.11150041 vsm
008 Q0 654278694534541317 65 0.11150041 vsm
008 Q0 654277382770180096 66 0.11150041 vsm
008 Q0 654274816409792516 67 0.11150041 vsm
008 Q0 654272721258475520 68 0.11150041 vsm
008 Q0 649169703408128001 69 0.11150041 vsm
008 Q0 648569329957621760 70 0.11150041 vsm
008 Q0 648553744922226688 71 0.11150041 vsm
008 Q0 648542856546750464 72 0.11150041 vsm
008 Q0 648541212161495041 73 0.11150041 vsm
008 Q0 651332107873189889 74 0.11150041 vsm
008 Q0 652063066494885888 75 0.11150041 vsm
008 Q0 652057945962860544 76 0.11150041 vsm
008 Q0 652057930439782400 77 0.11150041 vsm
008 Q0 652056412147683328 78 0.11150041 vsm
008 Q0 652053613729181696 79 0.11150041 vsm
008 Q0 652473923007852544 80 0.11150041 vsm
008 Q0 652469627688235008 81 0.11150041 vsm
008 Q0 652448448881557504 82 0.11150041 vsm
008 Q0 647442174846599168 83 0.11150041 vsm
008 Q0 648234920251400192 84 0.11150041 vsm
008 Q0 648224896032591872 85 0.11150041 vsm
008 Q0 648223521689206784 86 0.11150041 vsm
008 Q0 648219682118475776 87 0.11150041 vsm
008 Q0 648218076316573696 88 0.11150041 vsm
008 Q0 648214338008821760 89 0.11150041 vsm
008 Q0 651336234263027712 90 0.08920033 vsm
