010 Q0 650949360281325569 1 5.311146 lm
010 Q0 650907505229459456 2 5.311146 lm
010 Q0 650907370843975680 3 5.311146 lm
010 Q0 650905848378748928 4 5.311146 lm
010 Q0 650904296075198464 5 5.311146 lm
010 Q0 650903620452544512 6 5.311146 lm
010 Q0 650903525392842752 7 5.311146 lm
010 Q0 651110435136118784 8 1.2793275 lm
010 Q0 652046042632876032 9 1.273605 lm
010 Q0 651000215391084544 10 1.0470114 lm
010 Q0 650907781768310784 11 1.0470114 lm
010 Q0 650786989126623232 12 1.0470114 lm
010 Q0 651084194576265216 13 1.0470114 lm
010 Q0 652136474784038913 14 1.0470114 lm
010 Q0 653938756681121792 15 0.53854895 lm
010 Q0 647036777077846016 16 0.53854895 lm
